{
  "project_info": {
    "project_number": "259608960191",
    "firebase_url": "https://mileto-prod.firebaseio.com",
    "project_id": "mileto-prod",
    "storage_bucket": "mileto-prod.appspot.com"
  },
  "client": [
    {
      "client_info": {
        "mobilesdk_app_id": "1:259608960191:android:4c459be882068534",
        "android_client_info": {
          "package_name": "com.miletoflowers.orderaggregatorapp"
        }
      },
      "oauth_client": [
        {
          "client_id": "259608960191-oj9mehfs76h3m23ujj77ubru20j84bjm.apps.googleusercontent.com",
          "client_type": 3
        },
        {
          "client_id": "259608960191-oj9mehfs76h3m23ujj77ubru20j84bjm.apps.googleusercontent.com",
          "client_type": 3
        }
      ],
      "api_key": [
        {
          "current_key": "AIzaSyCqQWVlISdJt9CrjvsbwDsfioBkW2ODUSg"
        }
      ],
      "services": {
        "analytics_service": {
          "status": 1
        },
        "appinvite_service": {
          "status": 1,
          "other_platform_oauth_client": []
        },
        "ads_service": {
          "status": 2
        }
      }
    }
  ],
  "configuration_version": "1"
}