{
  "type": "service_account",
  "project_id": "mileto-prod",
  "private_key_id": "cd031c64f7da787fe86934ba33de716613f2d04d",
  "private_key": "-----BEGIN PRIVATE KEY-----\nMIIEvgIBADANBgkqhkiG9w0BAQEFAASCBKgwggSkAgEAAoIBAQC5syTYNaw4mtbk\nWN6tlGsVvcVm/mUSLkWQYeLjZl/vu+mXBAoSmXcdV80Twn8LjFY6fIFGkvS6p5zE\nek/9q4IPuFlnM33ZHauZbICiLrE9PsaqoqVEsYJVKusso173Kxrx4ah1HuarKUen\nOuncCi0JS38dvvyt3aIYkSzgHQTB1xjY9o08dIsBd1ZqMt6OPF/d3Z+XXa8n6cB2\nZSl2t99oXvm6pS4h/97d2UVcXzIwLLMmhM08m9HXppb8h6Q0lSJFnN2MaesQonkP\nXwvvqTGDBXXpo3Abn1XuE/0Sa7TIg2YKUXmiSR8DDu7tNl2IpNsqPpDeobWXWJaF\n9iZJE9HvAgMBAAECggEANISIEoeXZcjQpnLFwzR61oK9fcPLhMlGTi+I0cQFtNCh\nnt57FMiHKerHamOyt2rghhjpHLL5+IHnsZ9f2P90wIpj6m5jFJCyE6ledb+by5Th\n7aci81r6X6jMKusnM+Lic27czAbJuLVreM2ODvdnxj2uPRTi9C7+pVEFbnp2enUl\n0W4nUiCntD1gdGebw8VKjjnsaANmVOf8Vaoc6oZB1Cy9zbRAWzsEmpiI/CG9MeSH\n4PKWKuo5/1oEYvny54N/xH1GvUYC58jw/yRoduCWfex9wDrHjbxnWJIXe0eO7+9X\nSm2xgwqRVB6zS+hbD+Sy46hri1HtDhzu4DZhald1UQKBgQDcrY4eOZHDLF93Kngn\n5+3LetFnzTyJOQdBAreKoypJDFZTtWGKFKLaCDgJ6CcQRiUEQlZ87HdGvrfAmtYH\nakcGAdD+lcRzv0abvJagREGADJUyp4LMJjbXNyg7mIie9LKLmOxc0J6DPl0yHF2B\nElUfedHn13c+QrrFHAvhFiVacQKBgQDXbFT/H2Tyrc29bRnlp2Bp1qs/ll1PD7Dj\ncT24gg81djhz0kFlQX3r6norqhqgF7XZiVNV3ZDryawRCOJnwJxBWbVoyyRJQBwT\nk3kcMqNuqQ2ZwqQ+tX5NmWCzsYWE7MqH+WVVmqiimIeeaDKiGkjtQz/fLo0rQozp\nhU0J6hhiXwKBgQCjcD7jj8uu+3ww69lV5OYvX+Ubtdtx3jTLJ1H8cd/tfh+pm5qE\nA8ihJpkqbTARU4Iy51ba6t9kG/hHw+VkVIgJoOrCwvVerHmE+mWsiSDhz2/otjuf\nK2ZOeuFnUg9NevmJflcAXtonZdbsOCngYE1/JGAcD26XRCDDv4PkztwXYQKBgC5x\nU43BBfFv2Qg6qjehsx5+QmMuFqXB2z/dnRHXMFI1T4xgyup6iRxAa+BYBu92zSS9\n/3JmlyTOUMNHaBA4LTfFkF+sVAFayfLKe3TB0gw8dAsvNFu0oys1oux6nC+BIVTZ\nRqiC9FJBkhNroWbjRc+pDO8fyR2Hdnut2mMFzgX/AoGBAMoPxHgcL6bmogTbLmOU\nnmf9rhjuQnYcpM192f1SnTbUocHhsyavIjQ/Tki2cJhQG43erqaQDD+MfGsJ5EDg\nks1DpEUCZcx5KFkd5ARmlDP+L5IodG1Ho3PwZ5Hjno/ZMeV0VE36LmnbLK/01abF\nX2nP6WVkpD5qsJ41eF0bEsaY\n-----END PRIVATE KEY-----\n",
  "client_email": "firebase-adminsdk-fgilg@mileto-prod.iam.gserviceaccount.com",
  "client_id": "104298907620126993982",
  "auth_uri": "https://accounts.google.com/o/oauth2/auth",
  "token_uri": "https://accounts.google.com/o/oauth2/token",
  "auth_provider_x509_cert_url": "https://www.googleapis.com/oauth2/v1/certs",
  "client_x509_cert_url": "https://www.googleapis.com/robot/v1/metadata/x509/firebase-adminsdk-fgilg%40mileto-prod.iam.gserviceaccount.com"
}
